<svg width="30" height="30" viewBox="0 0 30 30" fill="none" xmlns="http://www.w3.org/2000/svg">
<g id="credit-card-plus">
<path id="Icon" d="M15 23.75H7.75C6.34987 23.75 5.6498 23.75 5.11502 23.4775C4.64462 23.2378 4.26217 22.8554 4.02248 22.385C3.75 21.8502 3.75 21.1501 3.75 19.75V10.25C3.75 8.84987 3.75 8.1498 4.02248 7.61502C4.26217 7.14462 4.64462 6.76217 5.11502 6.52248C5.6498 6.25 6.34987 6.25 7.75 6.25H22.25C23.6501 6.25 24.3502 6.25 24.885 6.52248C25.3554 6.76217 25.7378 7.14462 25.9775 7.61502C26.25 8.1498 26.25 8.84987 26.25 10.25V15M3.75 11.25H26.25M22.5 26.25V18.75M26.25 22.501L18.75 22.5" stroke="#0A6836" stroke-width="2" stroke-linecap="round" stroke-linejoin="round"/>
</g>
</svg>
