<svg width="17" height="16" viewBox="0 0 17 16" fill="none" xmlns="http://www.w3.org/2000/svg">
<g id="monetization_on">
<path id="Vector" d="M8.37565 1.3335C4.69565 1.3335 1.70898 4.32016 1.70898 8.00016C1.70898 11.6802 4.69565 14.6668 8.37565 14.6668C12.0557 14.6668 15.0423 11.6802 15.0423 8.00016C15.0423 4.32016 12.0557 1.3335 8.37565 1.3335ZM8.37565 13.3335C5.43565 13.3335 3.04232 10.9402 3.04232 8.00016C3.04232 5.06016 5.43565 2.66683 8.37565 2.66683C11.3157 2.66683 13.709 5.06016 13.709 8.00016C13.709 10.9402 11.3157 13.3335 8.37565 13.3335ZM8.58232 7.42683C7.40232 7.12683 7.02232 6.80016 7.02232 6.3135C7.02232 5.7535 7.54898 5.36016 8.42232 5.36016C9.34232 5.36016 9.68898 5.80016 9.71565 6.4535H10.8557C10.8223 5.56016 10.2757 4.74016 9.19565 4.4735V3.3335H7.64232V4.46016C6.63565 4.6735 5.82898 5.32683 5.82898 6.3335C5.82898 7.52683 6.82232 8.12683 8.26898 8.4735C9.56898 8.78016 9.82899 9.24016 9.82899 9.72016C9.82899 10.0735 9.56898 10.6468 8.42898 10.6468C7.36232 10.6468 6.94232 10.1668 6.88232 9.5535H5.73565C5.80232 10.6868 6.64232 11.3268 7.64232 11.5335V12.6668H9.20232V11.5535C10.2157 11.3602 11.0157 10.7802 11.0223 9.70683C11.0157 8.24016 9.75565 7.7335 8.58232 7.42683Z" fill="#525252"/>
</g>
</svg>
