<svg width="120" height="120" viewBox="0 0 121 120" fill="none" xmlns="http://www.w3.org/2000/svg">
    <g id="File Unknown">
        <path id="Vector" d="M101.109 33.8306L75.8906 8.6001C75.1875 7.89697 74.2266 7.49854 73.2305 7.49854H23.4609C21.3867 7.49854 19.7109 9.17432 19.7109 11.2485V108.749C19.7109 110.823 21.3867 112.499 23.4609 112.499H98.4609C100.535 112.499 102.211 110.823 102.211 108.749V36.479C102.211 35.4829 101.812 34.5337 101.109 33.8306ZM93.5625 38.2017H71.5078V16.147L93.5625 38.2017ZM93.7734 104.061H28.1484V15.936H63.5391V41.2485C63.5391 42.5539 64.0576 43.8058 64.9806 44.7288C65.9037 45.6519 67.1556 46.1704 68.4609 46.1704H93.7734V104.061ZM48.0703 64.3345C48.0703 64.9673 48.5859 65.4478 49.2187 65.4478H53.0156C53.6484 65.4478 54.1641 64.9556 54.1641 64.3462C54.1641 61.0415 57.1875 58.2993 60.9609 58.2993C64.7344 58.2993 67.7578 61.0415 67.7578 64.3345C67.7578 67.2993 65.2969 69.8657 61.9805 70.2993C59.7188 70.6274 57.9375 72.6782 57.9141 74.9985V78.7485C57.9141 79.3931 58.4414 79.9204 59.0859 79.9204H62.8359C63.4805 79.9204 64.0078 79.3931 64.0078 78.7485V77.3188C64.0078 76.6157 64.4766 75.9712 65.1445 75.7603C70.3711 74.0728 73.9336 69.4321 73.8516 64.1704C73.7578 57.6665 68.0859 52.3579 61.1367 52.2642C53.9414 52.1821 48.0703 57.6079 48.0703 64.3345ZM57.2109 87.186C57.2109 88.1806 57.606 89.1344 58.3093 89.8377C59.0126 90.541 59.9664 90.936 60.9609 90.936C61.9555 90.936 62.9093 90.541 63.6126 89.8377C64.3159 89.1344 64.7109 88.1806 64.7109 87.186C64.7109 86.1915 64.3159 85.2376 63.6126 84.5344C62.9093 83.8311 61.9555 83.436 60.9609 83.436C59.9664 83.436 59.0126 83.8311 58.3093 84.5344C57.606 85.2376 57.2109 86.1915 57.2109 87.186Z" fill="#B8B8B8"/>
    </g>
</svg>
