<svg width="24" height="25" viewBox="0 0 24 25" fill="none" xmlns="http://www.w3.org/2000/svg">
<g id="truck">
<path id="Icon" d="M18.5 18.5C18.5 19.6046 17.6046 20.5 16.5 20.5C15.3954 20.5 14.5 19.6046 14.5 18.5M18.5 18.5C18.5 17.3954 17.6046 16.5 16.5 16.5C15.3954 16.5 14.5 17.3954 14.5 18.5M18.5 18.5H21.5M14.5 18.5H13.5M8.5 18.5C8.5 19.6046 7.60457 20.5 6.5 20.5C5.39543 20.5 4.5 19.6046 4.5 18.5M8.5 18.5C8.5 17.3954 7.60457 16.5 6.5 16.5C5.39543 16.5 4.5 17.3954 4.5 18.5M8.5 18.5H13.5M4.5 18.5C3.39543 18.5 2.5 17.6046 2.5 16.5V7.7C2.5 6.5799 2.5 6.01984 2.71799 5.59202C2.90973 5.21569 3.21569 4.90973 3.59202 4.71799C4.01984 4.5 4.5799 4.5 5.7 4.5H10.3C11.4201 4.5 11.9802 4.5 12.408 4.71799C12.7843 4.90973 13.0903 5.21569 13.282 5.59202C13.5 6.01984 13.5 6.5799 13.5 7.7V18.5M13.5 18.5V8.5H17.5L20.5 12.5V18.5M19.5 12.5H13.5" stroke="#0A6836" stroke-width="2" stroke-linecap="round" stroke-linejoin="round"/>
</g>
</svg>
