<svg width="24" height="24" viewBox="0 0 24 24" fill="none" xmlns="http://www.w3.org/2000/svg">
<g id="Camera">
<path id="Vector" d="M16.53 12V6.667C16.53 5.194 15.37 4 13.94 4H3.588C2.158 4 1 5.194 1 6.667V17.333C1 18.806 2.159 20 3.588 20H13.941C15.371 20 16.529 18.806 16.529 17.333L16.53 12Z" stroke="#0A6836" stroke-width="2" stroke-linecap="round" stroke-linejoin="round"/>
<path id="Vector_2" d="M17 10.1331L21.445 7.1701C21.5956 7.06962 21.7707 7.01191 21.9515 7.00313C22.1323 6.99435 22.3121 7.03482 22.4718 7.12023C22.6314 7.20564 22.7648 7.33278 22.8579 7.48809C22.9509 7.64341 23 7.82106 23 8.0021V15.5151C23.0001 15.6856 22.9566 15.8532 22.8736 16.0022C22.7907 16.1511 22.671 16.2764 22.526 16.366C22.381 16.4557 22.2155 16.5068 22.0452 16.5145C21.8749 16.5223 21.7055 16.4863 21.553 16.4101L17 14.1331V10.1331Z" stroke="#0A6836" stroke-width="2"/>
<path id="Vector_3" d="M9 16C11.2091 16 13 14.2091 13 12C13 9.79086 11.2091 8 9 8C6.79086 8 5 9.79086 5 12C5 14.2091 6.79086 16 9 16Z" stroke="#0A6836" stroke-width="2" stroke-linecap="round" stroke-linejoin="round"/>
</g>
</svg>
